\relax 
\@writefile{toc}{\contentsline {section}{\numberline {1}Baseline - Optimization}{1}}
\@writefile{toc}{\contentsline {section}{\numberline {2}Recurrent Neural Network}{1}}
\@writefile{toc}{\contentsline {section}{\numberline {3}An alternative thought}{2}}
\@writefile{lof}{\contentsline {figure}{\numberline {1}{\ignorespaces A Flowchart of the Proposed Recurrent Network\relax }}{3}}
