,ITM_GL_GL_RRP_030_1491403560000_46581_0,ITM_GL_GL_RRP_030_1491403560000_46581_1,ITM_GL_GL_RRP_030_1491403560000_46581_2,ITM_GL_GL_RRP_030_1491403560000_46581_3,ITM_GL_GL_RRP_030_1491403560000_46581_4,ITM_GL_GL_RRP_030_1491403560000_46581_5,ITM_GL_GL_RRP_030_1491403560000_46581_6,ITM_GL_GL_RRP_030_1491403560000_46581_7,ITM_GL_GL_RRP_030_1491403560000_46582_0,ITM_GL_GL_RRP_030_1491403560000_46582_1,ITM_GL_GL_RRP_030_1491403560000_46582_2,ITM_GL_GL_RRP_030_1491403560000_46582_3,ITM_GL_GL_RRP_030_1491403560000_46582_4,ITM_GL_GL_RRP_030_1491403560000_46582_5,ITM_GL_GL_RRP_030_1491403560000_46583_0,ITM_GL_GL_RRP_030_1491403560000_46583_1,ITM_GL_GL_RRP_030_1491403560000_46583_2,ITM_GL_GL_RRP_030_1491403560000_46583_3,ITM_GL_GL_RRP_030_1491403560000_46583_4,ITM_GL_GL_RRP_030_1491403560000_46583_5,ITM_GL_GL_RRP_030_1491403560000_46583_6,ITM_GL_GL_RRP_030_1491403560000_46583_7,ITM_GL_GL_RRP_030_1491403560000_46584_0,ITM_GL_GL_RRP_030_1491403560000_46584_1,ITM_GL_GL_RRP_030_1491403560000_46584_10,ITM_GL_GL_RRP_030_1491403560000_46584_11,ITM_GL_GL_RRP_030_1491403560000_46584_12,ITM_GL_GL_RRP_030_1491403560000_46584_13,ITM_GL_GL_RRP_030_1491403560000_46584_2,ITM_GL_GL_RRP_030_1491403560000_46584_3,ITM_GL_GL_RRP_030_1491403560000_46584_4,ITM_GL_GL_RRP_030_1491403560000_46584_5,ITM_GL_GL_RRP_030_1491403560000_46584_6,ITM_GL_GL_RRP_030_1491403560000_46584_7,ITM_GL_GL_RRP_030_1491403560000_46584_8,ITM_GL_GL_RRP_030_1491403560000_46584_9
0,-0.73369294405,3.21887493134,2.7403922081,1.15909409523,-1.531894207,-2.46419119835,-1.69997477531,-1.93286001682,-1.42077970505,1.3661698103,1.51546704769,-0.109353929758,1.18886518478,-1.24966990948,0.831201970577,-0.222634851933,-3.79386162758,-2.75026297569,-4.55199861526,-2.55430984497,-2.0752120018,-2.33515000343,-2.00703501701,-2.29298424721,-0.276267021894,-2.54960131645,-7.32475709915,-2.19963097572,-2.7557246685,-1.97410953045,-7.87181901932,-3.82961559296,-2.20846986771,-7.28335952759,-3.9027402401,-1.01646399498
1,1.44003629684,5.22686624527,-2.12250995636,2.98639464378,3.40534925461,2.80288600922,2.91951394081,0.385769963264,-0.129337996244,4.43038320541,2.71839928627,3.65845513344,4.6605052948,-0.384060025215,1.25920581818,6.32130002975,6.40032577515,2.96568775177,5.56611442566,2.0796122551,9.27924251556,1.63706588745,1.48219406605,1.80552864075,3.78924703598,3.86627435684,8.4392786026,2.19811272621,2.16331601143,1.12347972393,1.82818078995,-0.89987796545,4.15354681015,1.3251619339,1.42248427868,0.235596060753
2,0.505339980125,0.457549929619,-1.08103203773,1.38184893131,4.10372066498,2.65089702606,3.62985801697,0.511196017265,-0.304589927197,2.67462921143,3.06460309029,5.13576698303,6.17664194107,0.463640004396,-1.66891598701,4.0617184639,1.07997298241,-1.56596457958,2.76006197929,0.620470941067,3.68378925323,-0.542160987854,0.54691016674,3.19723105431,3.6550590992,3.20012569427,1.09917294979,1.40536475182,1.08812987804,1.88866996765,1.27045738697,6.37079715729,4.82622003555,6.49307966232,1.71224999428,2.07072997093
3,-0.632278978825,-2.02836894989,4.70832586288,0.658581972122,0.26086550951,1.47399091721,-2.68558835983,-1.42478013039,1.27727901936,0.650024950504,0.513207435608,2.08498358727,-2.36929941177,0.899958968163,2.75498342514,2.26574707031,-1.4097430706,1.01225697994,-4.0521402359,-1.86582171917,-3.37853217125,-0.195970997214,-0.890506029129,0.163073927164,-2.34345960617,-1.21387398243,-1.43119812012,-2.58953404427,-2.92908000946,-1.19112157822,-1.92169201374,0.501667022705,2.66952872276,2.36561775208,-2.11930513382,-1.10528993607
4,0.556175172329,-1.14800858498,1.89187312126,2.03393125534,-3.5273399353,-0.798790752888,-4.21034049988,0.0835720300674,-1.07043790817,-0.671161949635,-2.01092028618,-3.36537504196,-5.67959976196,0.704580008984,-0.694557964802,0.163300037384,3.66427612305,0.492953270674,0.229110494256,-0.622028410435,1.34049844742,1.79267001152,0.0738592371345,-4.27738618851,-2.38812446594,-1.518425107,-0.868573963642,-1.85821485519,-3.85933423042,-1.20775341988,-3.20450377464,-4.52982473373,-1.26906430721,-6.06649398804,-2.68622851372,-1.78640556335
5,-3.79058885574,-5.02601480484,-5.30857992172,-4.47257041931,-2.68502163887,-3.44978666306,-3.40647578239,1.27307999134,-0.459960013628,-2.34270477295,-4.00591993332,-3.54617404938,-7.25888061523,-0.582216024399,-2.06347203255,-5.94494056702,-8.23139953613,-4.86478233337,-1.61332857609,-0.288138985634,-3.06457996368,0.184659987688,1.08005797863,1.58498895168,3.09510993958,2.55681991577,6.74496269226,3.02694010735,-0.237004429102,-2.18514728546,-0.98033708334,-2.06700062752,1.23224401474,-1.01053595543,1.51560401917,1.08007013798
6,0.199447989464,0.930465817451,-2.00570201874,-2.11125302315,0.122279621661,-2.17444992065,-3.26534104347,0.572548031807,-0.134120881557,0.78889811039,-2.53933286667,-2.73896002769,-1.63023102283,-0.113339960575,1.29887592793,1.01478111744,3.08210206032,1.37824594975,0.62975615263,1.47587859631,-1.3272613287,0.111630022526,0.310569941998,-1.9711933136,-0.73665201664,2.72270464897,6.24404430389,3.08733701706,-0.143017783761,-0.147765010595,1.81049156189,-1.66215789318,-2.17440915108,-0.817890882492,1.7594370842,0.583007514477
7,0.854165792465,-0.560099363327,-1.31072211266,-1.1967972517,-0.311983942986,2.18425703049,-3.2077255249,1.60773098469,0.0904059410095,0.569318771362,-1.41152405739,-3.17491102219,-3.51494216919,-1.39454400539,1.16108298302,-1.34844589233,-1.01182997227,0.345369100571,0.577893733978,-2.38249397278,-0.0070750489831,-1.32753002644,1.52206003666,-2.1942820549,-0.527000248432,-0.827284872532,2.28545451164,-0.299223959446,0.906186938286,2.55994319916,2.20708680153,1.09535598755,2.9607000351,4.02915525436,-1.46648287773,-1.78277909756
8,-0.124147623777,-1.0475269556,-1.56554996967,2.91689586639,2.417501688,-1.47871279716,4.82394266129,1.19205999374,-0.681535840034,1.17139291763,1.95338881016,3.61129570007,2.67609548569,1.35126495361,-1.4239910841,-5.36733722687,0.453960239887,-1.41088402271,0.809256017208,2.49430656433,2.23642802238,0.980056107044,-0.33814895153,3.00249910355,4.72887182236,2.54255390167,2.76912212372,1.73074603081,-1.56438016891,-2.90025186539,4.15921115875,2.10712099075,2.02891993523,-0.143469899893,1.23785996437,1.16625106335
9,1.14515399933,3.66374182701,-4.26725625992,1.94976997375,2.01649522781,3.71166324615,-0.404021888971,-0.0942669510841,-0.304607927799,-0.346237927675,1.05573058128,-0.0389759205282,1.2340400219,-0.556480050087,0.0511201024055,3.83777666092,4.08810043335,3.56203317642,3.61573171616,1.54945003986,0.403970003128,0.810230016708,1.95047092438,2.15429019928,-0.65443533659,3.88085007668,2.08394813538,0.113873071969,1.37154316902,0.721888005733,2.69056987762,0.521935045719,2.01271414757,2.15068411827,2.98247003555,1.33842408657
10,0.816817998886,-0.885244965553,-0.346254229546,0.691888809204,5.31203651428,-0.943884313107,0.571115911007,0.741927981377,0.183630019426,2.01575493813,-0.430270045996,-2.75917506218,1.97040200233,-1.49259901047,0.450620055199,0.355981349945,4.71852350235,0.461502879858,4.99591112137,-0.938413977623,6.56646251678,0.655510008335,3.84541988373,-0.841279804707,3.06391739845,-1.36014091969,-1.24188613892,0.9759349823,0.473877996206,0.475513100624,1.81769120693,-0.200263947248,-0.634730041027,-2.93803811073,-0.449025094509,-0.0242780074477
11,-1.35660600662,-5.26427221298,-1.61501097679,-3.88012170792,-1.650613904,-4.20637702942,-0.159985184669,-0.990225076675,1.05728292465,-1.72384095192,-1.39150011539,1.58622407913,-2.04223680496,1.83991193771,-1.4366300106,-3.27118062973,-5.46187257767,-4.31327104568,-1.47582900524,-1.01330399513,-3.01509594917,-1.19286108017,-1.47848296165,1.00395894051,-2.46681380272,-2.4106400013,-2.39965319633,-3.91099286079,-1.61723792553,-3.86234736443,0.104223936796,-3.47447896004,-1.62461400032,-4.1354341507,-2.69940280914,-1.92474198341
12,0.208110004663,3.05845403671,0.825879812241,3.63357973099,-2.28971219063,2.05738282204,1.50995290279,-1.41701996326,1.08573496342,-1.21773588657,0.740041017532,3.63541817665,2.450111866,0.330240011215,0.881994009018,0.375668734312,-0.647340893745,-3.68835830688,0.00117373466492,0.0603020191193,1.21111226082,-0.153719902039,1.58264994621,3.66651248932,-1.79721784592,-0.549221992493,-1.61525988579,-2.29875397682,0.722214996815,2.24380111694,1.43034911156,0.515395820141,3.67482447624,2.17359447479,-0.181553930044,0.0786710083485
13,-0.969940185547,-0.656704306602,1.40716397762,-1.23552024364,0.224563539028,0.30230474472,-2.28405928612,-1.39194595814,1.48860788345,2.73766279221,0.417131662369,-1.63274621964,-1.57874381542,-0.78694999218,-0.991864085197,-0.641180813313,-3.68996024132,-3.10420536995,-4.3116736412,0.32765686512,-1.01964604855,0.317537993193,2.66914081573,2.23894405365,1.10198998451,4.83209037781,5.97762060165,2.99245977402,-1.32140278816,2.98272514343,1.33960497379,3.77647304535,2.28824591637,0.565959095955,0.159682959318,-0.346588909626
14,1.84060001373,-2.97758579254,-2.91923213005,0.505295217037,-0.256261050701,-1.28373897076,-3.16629624367,-0.740969061852,0.86350607872,-1.26428103447,1.1218559742,1.08933067322,2.73095297813,-0.593921005726,0.461205035448,-4.29120159149,2.6413629055,2.06692099571,-0.326893925667,-1.33086109161,-0.10446190089,1.06794404984,0.938929080963,0.0398863591254,-0.857414960861,-0.785995960236,1.23928403854,0.0543489716947,-1.59757208824,2.92085814476,-2.6546227932,3.1366341114,0.417065083981,6.48831653595,-0.99301815033,0.796847999096
15,2.80902004242,-2.37878894806,-1.12634408474,0.256490111351,0.819066047668,1.79414820671,-3.40184903145,0.0870850384235,-1.15691792965,-5.33409452438,-1.24378395081,-2.58356976509,0.581764936447,-1.386474967,-2.30980992317,-3.07932710648,-2.67899012566,-0.647785067558,-7.73847055435,-2.23272895813,-3.35687541962,0.581936061382,0.382969856262,-1.20951998234,-3.17125988007,-2.62056589127,-2.2080283165,-3.03407907486,-3.26838517189,-4.37270450592,-5.68753480911,-0.00626799464226,-3.33679032326,-3.90955448151,-2.07188987732,-2.55176997185
16,2.74091696739,6.70153713226,6.51914691925,0.731750905514,0.212429493666,4.09777879715,2.93304586411,-0.543210983276,1.23262095451,3.47428154945,2.73903989792,-0.809284031391,0.866746902466,0.24703001976,4.1003112793,9.4431552887,2.9467458725,-1.05658209324,-2.70973205566,-0.284899950027,-0.993151843548,1.39077603817,-0.569050133228,-0.883213102818,0.108739942312,0.331994026899,-1.83812105656,-0.149514049292,-0.856925070286,2.88163900375,-1.80982112885,1.56667995453,0.527694821358,0.823710978031,-1.05367612839,-1.22913002968
17,2.88347554207,3.14345622063,2.36868810654,4.81639814377,2.86482977867,1.06096708775,3.6977391243,-0.50642991066,-0.636840999126,3.34287190437,2.43972611427,3.00581693649,6.50319242477,0.358300000429,0.527979969978,0.917958021164,3.61899614334,0.885131120682,2.55042219162,0.329146057367,-0.541631996632,1.44257700443,0.689567923546,2.90503025055,2.68972611427,2.38468194008,0.3251298666,0.298624008894,3.02012491226,0.673608064651,0.569166123867,-3.64008426666,-0.14923787117,-3.3181681633,0.194096118212,0.835715055466
18,-0.684191942215,-3.50797009468,-1.09607648849,-1.64837992191,-0.277637839317,-1.5829000473,-5.41020345688,0.13633441925,-0.784160077572,-5.89523029327,-0.463570088148,-2.17801713943,0.479349851608,-0.856346011162,-1.20466899872,-8.98875904083,0.0847979933023,3.58244848251,-4.25281333923,-2.6798620224,-1.62192773819,-0.0300099849701,0.523066043854,-5.26658964157,-1.28759586811,3.18451929092,3.14573407173,3.60648417473,-1.67157685757,4.08392333984,0.0607930421829,-1.12029409409,-1.90863001347,-2.50623202324,-2.17606186867,-2.66504478455
19,0.877008974552,2.1743888855,-0.677623331547,0.235660016537,0.435728669167,2.08629226685,4.42832374573,0.461286991835,-0.265487402678,1.00255966187,1.1750780344,6.22400903702,4.95507717133,0.789359986782,0.999521017075,1.05319166183,-4.11946201324,-1.75063681602,0.215205714107,1.33359992504,-1.1214196682,-1.08105742931,-1.91534698009,5.27489709854,-2.77263522148,-3.78801131248,-6.02852869034,-4.5242190361,0.912096977234,-1.5585873127,-1.72769141197,-3.6296312809,-0.307323038578,-4.81684970856,1.29945385456,4.56003952026
20,1.83483231068,0.84207457304,-1.75192940235,2.23602700233,1.15543198586,-0.671494960785,-0.159913316369,0.143429994583,-0.930308997631,-1.96428453922,0.731368899345,0.761576354504,2.4324195385,0.527620732784,-1.79639959335,-2.89719080925,0.24309104681,-1.42828190327,4.71374750137,3.21983146667,6.09405660629,-0.663716077805,5.50159502029,4.18319749832,0.838307797909,1.43030512333,-3.09907627106,-0.297552019358,2.32421684265,3.76303887367,1.14680087566,6.28193998337,4.67943811417,2.76236009598,2.37972426414,2.81511235237
21,-3.54174804688,-1.52465200424,1.73340177536,-2.18622779846,-4.1956987381,-2.36066484451,-2.23112630844,-1.58349192142,-0.311200022697,-2.74325585365,-1.19979786873,-3.37863779068,-1.11365199089,-1.29082620144,-1.05903804302,0.518969893456,-3.97130584717,-3.79666948318,-3.00208687782,-3.97766494751,-2.57088899612,-1.74715995789,-1.28523504734,-3.83954405785,-2.46452713013,-3.45100522041,0.504941821098,-1.50274097919,-0.686248064041,-2.91542553902,-1.66600322723,3.11483812332,-0.339324980974,0.677569031715,-3.50549197197,-2.12798309326
22,-0.128295138478,-2.11407899857,1.95882701874,0.635464966297,-0.338953047991,-0.0398599356413,-1.92277383804,-0.937707543373,-1.77027511597,-1.70579099655,-1.67446184158,-1.88919091225,-3.21737170219,-0.738889992237,-0.132146194577,2.92744588852,2.61383700371,2.80366110802,3.02636623383,0.0670669972897,3.70986652374,0.23843896389,-2.59646105766,-3.70041275024,-2.72240114212,-3.1254529953,-2.63429689407,-2.14951014519,-0.86759608984,-0.808460056782,0.910396099091,-1.36629998684,-0.0976808667183,-0.400749981403,-0.478568017483,-1.01718401909
23,-0.661602020264,1.00932645798,4.35549926758,-0.128461033106,-4.14147567749,1.45733988285,-4.62570858002,0.2523830235,-0.922105014324,1.60781383514,-1.47403299809,-0.399587512016,-0.307872056961,1.62287998199,-0.0858060121536,2.25837779045,3.08845186234,-1.88893795013,0.767926990986,1.69440793991,-0.0772620290518,0.174829006195,1.98073601723,0.31537103653,-2.60398983955,1.5726993084,-4.22239303589,-1.72591590881,-0.719987034798,-3.40649867058,-2.17981791496,-0.0449581444263,0.474201083183,-2.06189823151,-0.0924669802189,1.4989991188
24,-2.32961988449,0.231021046638,-1.32065176964,-0.0982114374638,-3.36764073372,-3.14621782303,-2.0090918541,-0.454058051109,-0.709619998932,-1.68118393421,-1.27158093452,-3.36817097664,-5.12129068375,-0.937349915504,0.497520029545,-0.282929897308,-4.55428981781,-0.438832998276,0.989418983459,-0.946521043777,-0.481148123741,-1.16442000866,-2.30920171738,-3.9762198925,0.756593644619,-0.20758010447,1.91337108612,1.03391695023,0.164490967989,0.729082047939,-0.573573946953,-0.904017925262,-0.653811097145,-0.882230758667,-1.38560605049,-0.145167022943
25,-2.70474600792,-0.772546291351,0.304588496685,-0.977387011051,2.79944467545,-0.885205984116,2.83555650711,-0.217699974775,1.45489835739,1.02406573296,1.98615038395,3.43231701851,2.75980806351,1.28255105019,-0.0884649753571,-3.04435253143,5.61932992935,5.08503770828,8.05114650726,8.39476680756,5.63493251801,-0.830763995647,3.34592199326,4.86102151871,4.01918888092,2.12420606613,5.66265773773,4.60866451263,5.07080221176,5.6727180481,6.52365398407,1.25082993507,-2.57599782944,1.48512327671,7.2277598381,3.97472977638
26,1.91341006756,-0.155752837658,0.974110007286,0.791780412197,3.32220840454,0.619661986828,-1.59678590298,0.860709965229,-0.271359980106,2.70783805847,1.93343603611,-1.78093123436,0.36127114296,0.0609900355339,-0.289873987436,2.86340284348,2.6914434433,0.662813127041,-2.50340986252,-1.18325996399,-1.59578454494,0.271403044462,-0.223961025476,-1.63316917419,1.85209107399,0.191671043634,-3.58607435226,3.18488025665,-0.9181599617,2.27856707573,0.345036923885,-0.128812983632,-0.155368924141,-1.19190597534,0.408630132675,1.65438318253
27,-0.999663949013,-4.74779987335,-8.70172214508,-0.260474920273,-2.7819852829,-2.04741001129,-3.76139044762,0.839349985123,-3.26929020882,-4.35441970825,-2.22802591324,-6.38025093079,-6.02312994003,-1.88563001156,-3.29597401619,-3.9482550621,-3.38213396072,-3.85898518562,-5.26976537704,-2.47884607315,-2.73334813118,0.860146105289,-1.30756378174,-7.11441230774,-0.856230020523,0.871488809586,0.497230052948,-0.201847925782,-5.3925318718,-4.53723955154,-4.17647790909,-2.38520002365,-4.19474601746,0.459343969822,-5.35968208313,-4.31643629074
28,-1.08410716057,-2.68889474869,-4.65123510361,-2.30632686615,-2.98626041412,-0.517938911915,-0.137916997075,0.543030023575,-1.89402508736,-2.09431385994,-2.5824239254,-0.224917888641,-4.3972826004,0.173357993364,-0.541824281216,2.13004088402,-8.10200023651,-5.61838197708,-0.813543796539,-2.44759368896,-0.806049823761,-1.82284998894,-1.93374300003,-2.13431310654,-2.6414899826,-3.70022058487,-5.22260379791,-4.46226215363,-0.167722970247,-4.82044839859,-0.41647195816,-3.79800987244,0.28616797924,-0.584454953671,-3.23583364487,-0.491525948048
29,0.280318945646,-2.86868023872,-4.43991422653,1.50799393654,-1.17355251312,-1.65413212776,-1.42575860023,0.498768866062,0.731950044632,-0.758121371269,-1.79251003265,-2.62508749962,-4.20676708221,-1.02993869781,0.788967967033,2.04471206665,-1.05223011971,-3.33873391151,-1.12460839748,-2.29764819145,-1.53350460529,0.784919977188,-1.80232286453,1.84087812901,-3.00927495956,-1.0192258358,-2.31434249878,-3.15459370613,-2.94806885719,-5.34079694748,-0.350196540356,-1.68920385838,-0.332825988531,-2.99668645859,-1.08091330528,-1.514367342
30,-3.12109994888,-3.44889974594,0.881860136986,-3.84895634651,2.73722243309,-1.87772285938,0.787873864174,-2.30631995201,0.156014919281,-0.359486937523,0.123980969191,2.67151093483,0.892666995525,0.0469599962234,-3.028247118,-9.46661376953,4.12851572037,1.78965568542,2.11615133286,0.515326917171,2.32178401947,0.509180963039,1.29745304585,5.17577886581,0.083513006568,-0.863254964352,-0.911966085434,0.339640021324,-0.624960899353,1.1367803812,0.353460043669,3.35709142685,-0.0306379571557,-0.404644966125,1.53198301792,1.29828095436
31,2.89369416237,8.97989082336,5.27758455276,8.83523750305,5.77544116974,5.51484680176,9.00707912445,0.973279953003,4.00345516205,5.72496509552,5.07957267761,5.74139976501,10.4813289642,1.66279995441,3.3557600975,10.9666204453,14.106631279,6.11225938797,12.2557010651,5.52127981186,8.96158027649,1.67917001247,4.10035324097,4.63502693176,2.81530666351,1.53963768482,-0.348936975002,2.68605971336,2.97872614861,1.33717942238,6.26639175415,0.13128605485,-0.472845494747,0.632571697235,5.99485015869,6.79286003113
32,-1.56519901752,0.756003856659,-0.994696557522,2.62600183487,-2.77502083778,-5.04952812195,2.52751636505,-0.786360025406,-0.85589993,-0.757537961006,-0.903293073177,-2.41043996811,-1.34231305122,0.42974498868,-0.887199997902,-4.24516201019,0.43580815196,-1.38668513298,-0.82834982872,0.38916015625,-0.7386328578,-1.81468987465,0.0726968646049,-2.09559512138,-0.162789940834,-4.77896881104,-3.6925008297,-3.13354969025,-2.65315461159,1.12299394608,-2.1572060585,2.99924397469,-1.70439982414,1.36810064316,-3.13138151169,-2.15233564377
33,1.24753189087,-2.89604496956,-1.31895887852,1.62543392181,0.00662744045258,0.0434099435806,0.565326392651,-2.26771306992,-1.66533899307,-1.98723399639,-1.17889690399,-2.86295700073,-2.50112128258,-0.244127005339,-1.12415993214,1.3557908535,-1.59073424339,-1.14347672462,2.66121292114,-0.755777001381,0.453672289848,-0.743019998074,-1.10465025902,-2.02251172066,0.534997940063,0.694389462471,-3.15447664261,-1.0937526226,-0.334330976009,-2.61714887619,-1.6323043108,-2.2868103981,-2.99791002274,-0.674454092979,-0.0824800133705,-0.551311016083
34,0.0893458724022,-0.0916849374771,-1.89109706879,4.28318119049,0.854799985886,-1.5272589922,3.33902955055,-0.0314329862595,-0.0437366962433,-3.23535037041,0.796690881252,1.57386505604,4.9619603157,0.196192011237,-1.5256216526,2.60781002045,3.32737016678,0.223580926657,-0.49308180809,-2.70074915886,1.25596904755,1.45787703991,0.089380979538,-0.780033946037,-1.33541202545,-1.43978118896,-0.65691691637,-2.1291372776,-2.89587044716,-2.7344660759,-4.41691207886,3.47969961166,5.18283414841,4.90320539474,-2.26643610001,-0.482670068741
35,3.08504295349,5.32559633255,0.823196947575,2.19701600075,3.61892461777,0.587383925915,1.79533994198,1.11002898216,0.54586994648,4.76713991165,2.96902751923,0.484647929668,3.06119012833,-1.12165307999,-0.775249958038,-1.49225223064,5.18872976303,2.21792984009,1.76631498337,0.26258996129,6.01472854614,1.13639998436,1.01957380772,1.34559488297,2.30563998222,-1.02528095245,4.07593917847,0.667828977108,1.84821999073,2.11277890205,-1.06686997414,0.268286764622,-0.915979981422,0.329319775105,-0.148026943207,0.755024015903
36,1.26379799843,-0.639010906219,-0.710052013397,2.8515291214,1.85670113564,-1.26957702637,-1.80363202095,-0.171773955226,0.0926300436258,0.924305021763,0.830519914627,1.42561006546,0.994831681252,0.610819995403,-1.87431001663,-3.47286748886,0.755890011787,2.72995710373,-0.694092392921,-0.323776423931,-2.23350596428,2.01501011848,2.35471224785,0.276898086071,0.905575990677,5.35066699982,6.06015253067,3.35796999931,-1.36470103264,0.486222058535,2.12525510788,2.39711999893,5.20376634598,4.10847854614,0.339570015669,1.90718007088
37,0.391630113125,1.11996293068,-0.61695086956,1.8202829361,-0.527908086777,-1.04270005226,-2.73628497124,0.0693930238485,0.454502016306,2.64112997055,-1.04266154766,1.06169104576,2.99091291428,1.33372795582,0.274976938963,6.14142417908,1.03293025494,-1.71324908733,-0.72176194191,0.850848078728,-1.93815398216,-0.0935680270195,2.06884002686,3.24696397781,-0.341675937176,-0.410573989153,0.905165851116,-0.107981964946,-0.379869997501,0.208319991827,1.08559787273,0.830039858818,3.40079379082,1.28946590424,0.395675927401,0.673277914524
38,-0.460115611553,-2.80218410492,1.79072380066,-1.64163124561,-0.311052024364,-3.14652013779,0.741185903549,-1.76790010929,0.294856071472,-2.2703397274,-2.18119049072,-3.19573688507,-2.69921588898,-2.27977800369,1.2032699585,-3.93214535713,-1.32757377625,0.00245993584394,0.97900390625,-0.433078050613,4.05786180496,-0.500939965248,1.43219518661,-0.363404035568,4.15557432175,2.41013622284,2.43872094154,2.60131406784,-0.392275184393,4.59330463409,0.486865818501,-0.427680134773,-0.485374718904,-4.29772949219,-1.27343904972,-2.56317400932
39,-4.38464736938,-1.26496493816,-3.01189661026,-2.22001481056,-4.34821414948,-4.3810300827,-2.62898111343,-0.943004012108,-0.796788990498,2.55556201935,-0.417153865099,-3.17225408554,-4.61337184906,-0.384059965611,-0.533311009407,0.19131487608,-1.4548137188,-1.8194745779,1.54846262932,-0.349116683006,1.52746987343,-1.08316373825,-2.88951277733,0.536326944828,2.2257733345,1.74044001102,-3.17042756081,0.901088058949,-0.286941021681,0.179176867008,-3.88024806976,-1.40206420422,0.0526539832354,-4.12771511078,-0.450316101313,-0.765097916126
40,-0.0565701127052,-4.49039554596,-3.22222590446,0.232080847025,1.17053365707,-2.82310295105,-2.05606412888,2.14115381241,-0.215859979391,-3.97292208672,-1.05974006653,-4.3549156189,-0.0859509110451,-1.23390495777,-1.98052215576,-8.73485851288,-0.124262034893,0.039259955287,-5.42543029785,-4.56447219849,-3.31139683723,0.609152019024,-1.45709788799,-5.79676914215,-6.89396762848,-2.92458415031,-3.96637392044,-4.15150976181,-3.42117452621,-4.39635562897,-6.19987726212,-1.95396780968,-4.98499536514,-0.579584062099,-4.6418967247,-5.40308761597
41,-0.0815510749817,-1.19816184044,-4.32656955719,-1.94090592861,-6.06432247162,-1.94738078117,-2.32208418846,-2.050096035,-2.16727828979,-5.67214488983,-3.27641391754,-1.58099555969,-6.35831975937,-0.709391951561,0.298373699188,-3.97276926041,-12.688375473,-8.41251373291,-10.6813402176,-6.78822946548,-10.6229763031,-2.95747709274,-2.31294512749,-3.94487643242,-4.83521986008,-6.23291158676,-9.75108528137,-6.44600629807,-5.11151790619,-8.95812892914,-8.50324821472,-6.27836990356,-3.33907485008,-6.20376396179,-8.50621509552,-4.13747739792
42,-0.0164428725839,-0.616164028645,-0.332502692938,-2.45975899696,-2.61914920807,-4.88712835312,-1.56255412102,-2.2301299572,-0.950510025024,-1.84621310234,-2.00944900513,1.98126363754,1.56662678719,0.267208009958,-0.816129982471,-6.78319454193,1.04771196842,-3.04550719261,-4.57458686829,-1.97262501717,-0.819905340672,-1.02373981476,-1.87100327015,1.68538343906,-3.98943376541,-4.26862049103,-7.83866357803,-5.5451374054,-4.14441204071,-2.98789000511,-2.78922653198,-0.873199999332,0.526337623596,-2.52893018723,-3.54111194611,-3.28384423256
43,0.121679022908,-3.91164565086,-3.99152708054,-0.236407101154,-4.59396982193,0.118898026645,-4.62723207474,-1.07848095894,-1.73135089874,-3.66740989685,-1.89812576771,-1.08153188229,-2.71974873543,0.627737998962,0.821875929832,-6.25575208664,-3.1779859066,-3.11302137375,-5.40799617767,-3.26438999176,-4.92819452286,-1.29927802086,-3.72731304169,-6.20738363266,-4.35308790207,-3.19440627098,-9.41066837311,-4.02867126465,-3.91617584229,-6.8208656311,-4.50054788589,-2.15040969849,-2.97441101074,-3.05824184418,-3.40887308121,-2.04603075981
44,-2.32586097717,0.320501148701,-1.25532305241,-1.66281211376,1.12207996845,-2.67570638657,-5.6554851532,-0.410406976938,-1.01765501499,2.18249440193,3.1050362587,-0.665953040123,-1.154260993,1.22058403492,-2.02103900909,0.940269768238,2.52755713463,2.31029462814,2.13965392113,2.40602207184,-0.690549969673,0.461790025234,1.96748805046,0.718466997147,2.05276989937,2.4428691864,8.00920581818,4.86302995682,0.914933800697,-2.01939058304,-0.5743688941,2.41703128815,4.09481620789,5.78392267227,3.16559195518,0.668932080269
45,-2.8145840168,-0.512400984764,-5.82523202896,-0.920704603195,-1.60933661461,-0.36373090744,-1.52412295341,-0.545043706894,0.0502490103245,1.4875998497,0.200609952211,-0.968013048172,0.663196325302,-0.267309963703,-0.309159219265,0.923832058907,1.31573390961,0.837676644325,-3.50002026558,-0.943901002407,-2.37296700478,1.63210701942,-0.171462774277,-1.20093584061,0.00182890892029,2.36791825294,4.19521570206,0.860302090645,-0.673368036747,-1.41901910305,-1.43131482601,-1.56459403038,-0.842770755291,-0.438201755285,-1.40872812271,-1.04962050915
46,-2.66360425949,0.537730872631,1.99948883057,-0.467486023903,-3.59080815315,0.540069043636,-1.59025394917,-2.67572999001,0.265716940165,-1.51429486275,-0.0613799095154,3.16122984886,0.497600972652,0.596960008144,1.19978690147,1.1473788023,-0.861800014973,-0.544542431831,0.670268416405,-1.45023238659,-3.48401641846,0.105505019426,-1.67301607132,0.587759971619,-2.75232815742,-2.14690518379,-2.38839697838,-1.97885513306,0.00701698660851,0.0305599570274,-1.03368997574,-2.08040595055,1.85208392143,-0.858527541161,0.841357588768,1.2657020092
47,-0.248172193766,-2.73458003998,-1.767562747,-1.46020126343,-1.7865664959,-3.86850333214,-2.04119181633,-3.5971467495,-1.03352546692,-1.62298083305,-2.51045274734,-3.05919885635,-3.13226819038,-0.614789903164,-2.17391610146,-0.405441462994,-1.51480162144,-0.973507881165,-3.26259851456,-0.470348566771,0.867832243443,-0.436765998602,0.991444826126,0.626080989838,-0.00955104827881,-4.5427365303,-0.972229957581,1.24705791473,-0.685593783855,0.0365349799395,0.0873809158802,3.69219517708,2.24365592003,3.96955013275,0.418098092079,-2.56424474716
48,0.221599876881,-2.72238469124,-4.25088024139,-0.813249826431,-4.65388536453,-4.13497972488,-4.0034198761,1.20316398144,-1.59853291512,-5.63273763657,-3.76204204559,-9.59449005127,-7.26830053329,-1.65340018272,1.1026198864,-4.02958202362,-6.08821582794,-3.42577791214,-5.74502182007,-3.65233039856,-3.11396431923,-2.30178976059,-4.93029975891,-10.0056800842,-3.45843601227,-2.45538783073,0.521618008614,-0.464315891266,-2.77307772636,-0.394499957561,-4.22880363464,-2.04220628738,-1.79015982151,-1.86109018326,-4.93489170074,-4.03374099731
49,-4.52810382843,-11.2141590118,-5.3602104187,-8.65422058105,-13.8228492737,-6.14094924927,-13.1671800613,-4.11395978928,-4.03181791306,-13.8724880219,-10.5387306213,-11.5341300964,-19.335559845,-2.72387003899,-4.40417575836,-6.96690940857,-9.66397190094,-7.86764621735,-14.1866979599,-10.6003599167,-14.5102081299,-0.810599982738,-4.69809961319,-10.187918663,-11.0122795105,-9.1436662674,-8.50841903687,-8.87860012054,-10.4422702789,-11.5772981644,-11.3832349777,-8.88912010193,-7.15919065475,-13.9448184967,-13.159488678,-11.7101383209
50,-0.626179456711,1.41649317741,2.02846813202,0.588776826859,3.76936244965,3.10144925117,1.0187458992,-0.205749988556,0.721886992455,1.83874392509,2.38076019287,3.90892577171,4.50529050827,-0.0347100198269,0.519383907318,-1.68443548679,4.2622961998,2.31767892838,2.67513632774,2.78330993652,1.43352532387,1.32187998295,1.41357147694,4.0744600296,4.37138986588,2.57118797302,3.66174507141,2.41961026192,3.42268276215,3.15754294395,0.613282561302,-1.44652807713,-1.1045280695,0.121700823307,3.87505102158,4.25775098801
51,0.625006020069,-1.20877099037,1.29998314381,2.72278308868,-1.57109594345,1.94107592106,1.74196720123,0.929035663605,-1.44317293167,-2.52005505562,-0.345055580139,-0.481640577316,-1.38570392132,-0.328478038311,-0.14713254571,-0.18200199306,-0.928060054779,-1.14498913288,-0.971742033958,-1.14852619171,0.44127202034,1.15147995949,-3.79347419739,-3.93071484566,1.64242434502,1.92262923717,3.68290638924,1.08311998844,-3.1817047596,-0.0106495916843,-0.961313009262,1.92097091675,0.408249139786,1.84197068214,-2.44526314735,-1.63752996922
52,-0.811269640923,-2.6654188633,0.280330002308,-1.32004487514,-0.337948858738,2.5133099556,-3.16853499413,-1.48827004433,0.602119982243,-2.23991084099,-1.49520981312,0.52216398716,-4.1051068306,-0.498820960522,0.0283119976521,-0.121259972453,-2.00823402405,-2.77323579788,-2.53783392906,-0.841098189354,0.365992844105,0.950892984867,3.00365281105,-0.0309698581696,-1.20386517048,-1.93588590622,2.94882965088,-1.28012096882,-3.13211297989,-0.457093119621,-3.33613991737,-0.424351930618,2.08460593224,0.390978097916,-2.33118200302,-0.741616010666
53,5.99613428116,10.2619915009,10.1933603287,12.0633478165,11.2578849792,6.85594558716,8.01547050476,1.32040703297,5.00478982925,10.2937688828,7.7418794632,9.35790157318,13.6945724487,0.536610007286,3.81580591202,12.2433691025,14.1024303436,9.25824546814,16.2428226471,7.15299081802,14.4872989655,2.79975008965,6.23421764374,12.4188127518,9.91526985168,8.90826034546,11.8660097122,7.16897964478,10.0663585663,14.2595796585,12.1615591049,5.55370998383,11.3895397186,10.7488307953,11.167881012,10.350230217
54,-0.0173949599266,1.69816684723,-2.39472579956,0.955479979515,2.23864889145,-2.09129500389,2.31597495079,-0.0898164063692,1.60789394379,2.00557804108,0.768965005875,0.576165020466,2.07766723633,1.39728999138,0.824455916882,1.54676401615,3.00042009354,2.75422096252,3.85717606544,0.586620926857,-1.35026419163,-0.19633898139,-4.53912115097,-0.761646032333,0.0387069284916,-3.05109977722,-3.48035097122,1.1971899271,1.03072202206,-1.43476390839,-2.17573308945,-3.80598855019,0.448953032494,0.882984936237,2.38734459877,0.592241764069
55,-13.1706104279,-20.8994922638,-20.0627880096,-29.0625782013,-27.8055534363,-16.2653999329,-22.1513290405,-5.87410593033,-12.899438858,-27.6257476807,-18.4957618713,-20.0314483643,-32.584728241,-2.94433903694,-11.9095401764,-36.6563606262,-30.860578537,-14.3574504852,-32.5171165466,-13.8179502487,-28.6796569824,-5.75962972641,-13.0561704636,-24.1801891327,-16.4083995819,-16.0198955536,-18.0382194519,-12.2687501907,-19.2078609467,-26.8389892578,-22.8620414734,-15.1471300125,-30.622051239,-23.4986286163,-20.2970199585,-23.2732105255
56,2.54311990738,-2.83473849297,2.85159707069,-0.537479877472,2.53842115402,0.677792966366,2.62858510017,0.79525500536,0.681089997292,-0.618692040443,0.72496008873,3.89767217636,1.22992229462,1.94857001305,-2.03582000732,-1.44662463665,-2.55050969124,-0.336999922991,2.64098405838,1.22887718678,1.33249425888,0.289376020432,-4.28585910797,-0.237806022167,1.5278980732,3.05023288727,-0.567143082619,0.688905894756,1.91447412968,-2.33100414276,0.00909948348999,0.0963898599148,-1.51903176308,2.06144976616,-1.23168599606,0.0150990784168
57,2.31931638718,-1.66194188595,-9.06033706665,0.296803861856,-2.65708804131,-4.10225296021,-2.67275381088,-0.489978045225,-3.25992584229,-3.71590209007,-3.33843612671,-5.61379337311,-3.4507651329,-0.771287977695,-1.03964006901,-1.19229876995,-4.87764883041,0.0597141087055,-1.85458683968,-1.58058178425,-3.5764272213,-1.31823897362,-1.69357299805,-6.05058956146,0.20082898438,-0.244670063257,0.0556406378746,0.133800059557,-1.14992010593,-0.185501158237,-0.0396727770567,-5.69735479355,-5.63412046432,-4.13955783844,-3.41795277596,-2.58990716934
58,9.79979991913,20.3477802277,21.7840595245,20.9735832214,22.8925647736,17.7804088593,17.6425189972,3.80447006226,7.54516983032,21.1654224396,16.3596000671,17.2052898407,26.7807006836,2.71526002884,8.24188995361,25.0302276611,28.1075191498,16.042798996,26.8605690002,12.7451200485,23.5000400543,5.0690279007,11.8164787292,20.1517505646,15.1566076279,16.4185123444,13.7928943634,8.54550743103,11.9392795563,21.5059185028,15.0956382751,15.4349584579,23.5090007782,18.7373886108,15.459569931,16.5565605164
59,2.7769138813,2.9408531189,0.901670336723,4.44292449951,2.15598917007,0.873304963112,1.01925706863,0.884508013725,1.77947998047,5.04066753387,0.60793197155,0.972721338272,4.31039237976,0.176574677229,1.0628939867,5.40300035477,5.21910047531,1.27133011818,5.1266040802,2.41290950775,2.15501379967,1.22412002087,2.74205207825,3.68756723404,1.38480758667,3.30340480804,3.11169600487,2.61802148819,0.516455590725,0.976989030838,2.74382591248,1.30936026573,5.82008361816,4.40585279465,2.95947623253,3.76468086243
60,-0.632417023182,1.32075417042,2.23987460136,-1.40218698978,2.37241387367,-1.15050506592,-0.287777036428,0.454531013966,1.16006588936,1.5429391861,2.70431017876,-0.787989974022,1.91167294979,-0.140579983592,-0.973987102509,-3.09960007668,0.22852987051,2.22069978714,0.501905679703,2.46153974533,2.37351179123,0.226105988026,1.93252038956,0.456699967384,2.05711889267,1.59524214268,1.44392490387,3.10338068008,0.349813938141,0.859228670597,1.52778327465,3.15222907066,-0.429866373539,1.44176483154,2.33973693848,0.5694835186
61,2.98914003372,5.35914039612,-0.377288937569,10.0013275146,8.05447387695,3.55579423904,5.96851968765,1.50558638573,3.99803113937,7.54824113846,4.80264997482,4.71185398102,7.22009086609,0.585759997368,5.52964019775,8.69743728638,1.33508110046,4.97420930862,3.99948620796,4.60409975052,7.06921958923,1.73737084866,7.93583726883,12.6067037582,8.39314937592,6.91564369202,9.57685661316,6.06726026535,8.4780664444,11.8792896271,10.9770011902,5.28099012375,11.3605031967,12.0309200287,8.45857620239,7.25871992111
62,-3.15024614334,-2.02002668381,-0.667113900185,-2.49665260315,-1.62882125378,-0.979629874229,-1.81934857368,-0.503186941147,0.41372397542,-3.32849597931,-1.79399096966,-3.85533213615,-8.2123374939,-0.693693995476,0.378747910261,1.94662892818,-0.655503869057,-2.49397659302,-3.82524514198,0.923714399338,-1.34658694267,-0.802158713341,-0.447805941105,-1.40239286423,-0.903478384018,-4.28347110748,-1.05990505219,0.061242967844,-4.23515987396,-3.93717908859,0.289994448423,0.882009983063,-3.23366785049,-0.411942958832,-0.657089948654,-3.83467888832
63,0.112442970276,-0.804162025452,0.738769829273,0.796162128448,-1.28951895237,0.744525969028,-3.59578466415,-1.25924909115,-0.0713929980993,-1.48705399036,0.353177964687,-2.23368620872,-0.746519207954,0.780434012413,-0.784729003906,-1.9578319788,3.31678271294,3.91900467873,1.57055819035,1.7395581007,2.49683666229,1.32692992687,2.30344820023,-0.638800024986,0.0626659989357,1.93318736553,5.99124288559,2.85940098763,-0.0704370588064,3.14096188545,0.317349940538,-2.95844602585,-0.590749561787,-4.00991153717,-0.366319090128,-1.96638095379
64,4.99655008316,7.48052883148,10.3402614594,7.21409320831,11.7372093201,5.76188993454,10.8668336868,2.04785609245,4.1190199852,4.60948467255,5.87668991089,8.48983955383,11.3251600266,-0.0973409712315,3.72862005234,9.78384208679,12.8175134659,8.2731294632,13.2887887955,3.31704592705,7.09497594833,3.68540000916,5.11194515228,9.46495914459,6.60705947876,8.40935897827,12.456820488,6.12951946259,7.86072063446,7.85389995575,10.2957763672,2.93121600151,10.3361034393,10.0556869507,8.53463935852,6.44991970062
65,2.46020197868,0.00787202361971,-0.492683112621,1.65452206135,2.20377898216,-0.651102542877,2.08054018021,-0.281942009926,-0.37364000082,2.70600199699,1.10372591019,1.71244192123,2.87455201149,-0.407090008259,0.0594401732087,1.13392186165,0.89729398489,0.165053084493,5.9188079834,1.71867120266,2.55438303947,0.491583973169,0.5678139925,4.24815940857,1.64054894447,4.44900608063,3.79354333878,2.20656299591,2.56864714622,-0.757683873177,0.611774921417,2.08954524994,2.81829977036,6.35035848618,1.12112617493,3.45085716248
66,2.61908602715,5.32467746735,1.21983718872,2.26640510559,7.33756399155,1.20504570007,4.94680976868,0.800510048866,3.20365715027,5.32725667953,2.90709066391,2.52051520348,6.10566759109,0.364840000868,2.30115509033,0.0427589416504,9.11411857605,4.92773723602,7.09442615509,5.95638084412,7.80376148224,2.45076274872,7.9996175766,5.05315637589,6.34851884842,8.9296169281,7.72116994858,7.38653945923,5.75406980515,5.99134778976,7.4801197052,2.44943094254,3.36211013794,2.58778572083,7.59253025055,6.74806451797
67,3.22716999054,3.72461891174,3.45462679863,-1.46394193172,-0.500360548496,2.70545816422,4.01063680649,-1.15300273895,1.36115431786,3.00998306274,-1.65266513824,0.517330944538,0.126925051212,0.875810980797,0.334747344255,7.80253601074,-3.31804990768,-3.96517467499,-1.79459512234,-1.1550899744,1.99574494362,-0.846088886261,-3.19366693497,-2.13630414009,-2.60659003258,-4.66363477707,-7.97759771347,-5.32138156891,-1.14363479614,-0.423754841089,-3.34196710587,-2.30251598358,-4.06859016418,-7.95346832275,-2.75223994255,-1.18046498299
68,2.01695179939,5.38839960098,3.1295580864,3.45853972435,0.849084615707,4.12167692184,-3.12276268005,-0.160500973463,3.31533002853,6.55105400085,5.03579998016,2.23397135735,7.62314367294,0.59221047163,2.06527996063,8.93762397766,7.84481906891,1.96839082241,-2.00217008591,-0.546151995659,-1.28532516956,1.41255998611,2.07966375351,2.51101398468,-2.92498016357,-3.16844534874,-0.351600646973,-1.42977464199,-0.855159521103,-0.377006620169,-0.205590844154,1.03202354908,4.44932413101,3.55772948265,-1.17215144634,2.39083695412
69,-1.45787000656,-2.71901130676,-3.64821577072,-1.85894083977,-5.1465959549,-0.952163815498,-4.47038888931,-0.891089975834,-0.221827030182,-5.08446884155,-3.30068802834,-3.65207004547,-2.67657399178,-1.40549004078,-0.39885994792,3.48054361343,-6.25169420242,-8.43427276611,-11.7894592285,-6.46347999573,-7.36231994629,-2.41288709641,-4.15219116211,-5.49956178665,-5.30336284637,-3.90176010132,-10.0474700928,-7.28367948532,-6.40124607086,-6.72888708115,-9.10534572601,-3.86438417435,-1.77880787849,-7.6522860527,-7.55688762665,-4.04033279419
70,1.54105985165,3.6210360527,0.50872194767,2.20757102966,1.39836704731,-0.208377063274,3.62402200699,0.0417579971254,-0.140698075294,4.05340766907,1.28560304642,1.15540194511,2.35906982422,1.00944900513,1.13748002052,3.55495405197,2.48258185387,1.99363350868,1.96437001228,0.875779867172,2.87139797211,0.0182069838047,-0.277090966702,1.87747704983,0.828569412231,-0.81699192524,-0.383462965488,0.54844301939,2.66130590439,2.02965903282,1.99097681046,1.56523013115,-1.03670799732,-1.23941707611,0.805043876171,1.59184801579
71,0.360088020563,-0.00146401673555,5.47175455093,1.61404597759,-1.0792850256,-0.741231679916,-0.835657298565,-0.225750461221,0.476378977299,-3.81525707245,-0.910258829594,-2.16998004913,-0.585703969002,-0.102699965239,0.413789004087,-0.559266030788,1.4198410511,-2.35667133331,-3.95186924934,-2.48740124702,-2.68072414398,-0.247383967042,0.0331759527326,-3.30210232735,-2.72874140739,-4.94260978699,-3.97175979614,-2.88371419907,-2.66993188858,-4.85164022446,-3.66228103638,-2.86829280853,-4.36149168015,-5.54595375061,-3.06828022003,-1.43400287628
72,-2.17467999458,-2.05089712143,-1.06775891781,0.353940010071,1.73711788654,2.03181910515,-0.78085899353,1.54427194595,-1.64178204536,-1.51034581661,0.892244040966,0.244839966297,-3.02852678299,-0.324759960175,-1.69366490841,-4.62752723694,1.18100202084,4.66916275024,6.81096982956,4.18532037735,3.47029304504,1.20976996422,4.07778692245,2.74437737465,4.1384601593,5.68374919891,6.32341146469,4.72602415085,4.29773521423,5.37811279297,3.59770298004,2.59021306038,1.01678001881,6.62900686264,6.00960206985,3.59591388702
73,-4.7137594223,-1.62234163284,-1.1083278656,-7.61903810501,1.77704954147,-0.121448844671,-4.23537254333,0.690430998802,-2.79585766792,-2.63325881958,-0.736212611198,-1.33145880699,-4.85280895233,-0.742534995079,-2.3332130909,-5.57913446426,0.310890883207,4.39524650574,2.72881317139,2.34648013115,-0.893934071064,-1.15753006935,-3.4460246563,-2.40347719193,0.0993800759315,-0.828249931335,1.42650902271,4.45188426971,-0.143671989441,1.0220220089,2.50582313538,-2.16829872131,-2.70802521706,-0.378346025944,3.03881120682,-0.0787259340286
74,-1.152572155,-0.191169202328,1.01106619835,1.50149905682,1.57320678234,1.58625495434,1.76472353935,0.404979020357,-0.0900130271912,2.2807469368,1.43082606792,3.90870118141,4.07047891617,0.959010004997,-0.122569978237,1.56415212154,0.0196608603001,0.834492862225,2.55094003677,0.673523187637,0.551165044308,-0.287359982729,0.755875110626,4.1730298996,-0.403870016336,2.2947280407,0.23367998004,-0.156060069799,3.85043978691,3.93414902687,2.17140388489,0.125233888626,2.29467821121,3.56615424156,2.23448061943,1.45313513279
75,0.561726987362,-0.0120563954115,-0.855941176414,-1.20986509323,1.51317071915,-0.718493044376,0.777500987053,1.74118900299,-1.7520301342,-1.00399315357,0.195396378636,0.235537514091,-1.16382837296,1.24906599522,-0.699757456779,-3.43974685669,-1.55342054367,0.664520859718,1.85062491894,0.842932105064,-0.0304739326239,-1.14845991135,-1.01700520515,2.42120075226,0.591475605965,-1.50883126259,2.24655032158,-0.191438943148,-0.403389006853,-1.59401190281,1.68953704834,-1.9473900795,-0.369628250599,0.507399141788,1.61146318913,1.41878902912
76,1.38879609108,0.109249055386,-3.07346796989,-0.479080706835,1.76031947136,-1.14859580994,-0.674347698689,0.582436084747,-2.67361688614,-1.12535905838,0.573102116585,0.485208570957,-2.1032204628,0.107610017061,-0.42484998703,0.0558911561966,-0.467299073935,-0.316029012203,3.42370986938,1.89534008503,3.5105111599,-0.246940016747,0.910317063332,2.33820176125,3.74519944191,2.33122682571,1.30557107925,2.029255867,0.482726037502,0.721340954304,1.44382810593,0.094907052815,0.349875122309,0.362110495567,1.93362295628,1.55294311047
77,-1.04146385193,-2.36662006378,-1.39403092861,0.950220048428,-2.88280034065,-2.11775708199,-2.07910132408,-0.0519409999251,1.86799192429,-0.718267560005,-1.11608505249,-1.70144093037,-2.30720925331,-1.2818249464,0.526964902878,-3.69015026093,-0.874267041683,-5.88078451157,-5.59637069702,-4.11534309387,-0.999999046326,0.519407987595,-5.96944046021,-3.78957128525,-5.24100971222,-5.38752317429,-7.44811344147,-6.42207288742,-2.61619901657,-6.81984567642,-8.52683544159,-3.78423571587,-1.50741016865,-3.94200730324,-6.50356626511,-2.33557701111
78,-5.48851585388,-9.39394855499,-11.9164495468,-6.19304847717,-5.49740982056,-8.05393886566,-4.49253559113,1.65141010284,-2.70667123795,-9.25004005432,-6.17924976349,-7.42771291733,-10.9846801758,-0.230450034142,-3.87415099144,-10.7786149979,-6.25070142746,-3.56196808815,-4.30540990829,-3.98428797722,-7.12430095673,-1.8918402195,-6.22346067429,-8.7834444046,-5.43042755127,-5.49434995651,1.28214895725,-0.771040081978,-1.22723197937,-6.62062072754,-3.02842998505,-1.88139390945,-7.46137189865,-2.06815838814,-3.76179814339,-5.68035078049
79,-1.42139589787,-1.07807600498,-0.728662967682,-2.2633702755,-0.233694016933,-0.171843975782,1.20455801487,-1.67942905426,-1.5109000206,0.259043991566,-0.1358499825,2.1895699501,-1.2232940197,1.39030599594,-1.25340008736,-1.89105844498,-2.09432983398,-0.0638928115368,2.27278113365,3.83996987343,0.628117144108,-1.02359497547,1.29427874088,3.1051800251,-0.838681995869,2.86691522598,3.72951197624,1.26481795311,1.54122793674,0.320509910583,4.76022911072,4.83733606339,2.26447081566,5.8180680275,4.26732587814,2.3348300457
80,1.77661287785,6.885617733,7.02093887329,5.87569618225,10.0750303268,5.65055990219,6.20216798782,-0.0201700031757,3.28563022614,10.7816581726,6.63457965851,5.70032215118,8.38589954376,1.62384009361,2.44363999367,9.64636611938,6.71877002716,4.95031023026,10.5817041397,5.90527629852,7.63220500946,1.36544013023,2.14564990997,7.55925989151,7.44278001785,4.43724012375,8.19328975677,7.17392969131,7.45770645142,7.57747840881,7.65538644791,2.76790213585,7.71255254745,5.27975988388,7.43406963348,7.1115899086
81,-1.1802508831,0.319677919149,-1.31567215919,0.0096640586853,-1.69867181778,0.59685999155,-4.609603405,-3.26861214638,0.909820973873,0.392845004797,-0.377422958612,0.181032031775,0.91282004118,0.980938017368,1.50145304203,4.01042985916,0.180598914623,-3.01261997223,-3.38839769363,-2.31727194786,-3.38106179237,-0.523839950562,-3.09880971909,-3.73228216171,-3.51927828789,-3.76041150093,-0.547676920891,-2.12624192238,-0.173719987273,0.330498993397,-0.645784139633,1.00577008724,2.40670371056,1.27221608162,-2.93950009346,-1.47819507122
82,-3.81637001038,-6.81352472305,-0.0426799058914,-6.84673929214,-8.0001335144,-4.79316473007,-4.68315887451,-1.67288088799,-1.31427001953,-4.60062980652,-3.23396778107,-4.00876808167,-11.1610546112,0.491010010242,-0.4783180058,-5.91091108322,-8.08288669586,-8.8281993866,-10.4448509216,-4.42677354813,-7.8267993927,-1.67675900459,-7.62587022781,-11.6136207581,-4.4478302002,-5.27067327499,-9.64886760712,-6.83604955673,-6.74823999405,-5.53205823898,-10.809510231,-8.90139007568,-10.6656742096,-12.9147748947,-9.36884021759,-6.55557012558
83,0.132902950048,2.71834158897,3.41647529602,-1.00947403908,3.40276956558,-0.592080116272,0.128374934196,0.675781071186,-1.32214307785,3.25305509567,2.79248976707,0.365257948637,2.03176999092,-0.440429806709,1.88638997078,2.76670002937,4.85959672928,2.42009735107,4.81805896759,4.57066965103,4.22273445129,-0.414461016655,1.81372988224,3.16623902321,0.22876906395,-0.343125790358,2.89804649353,2.77381706238,1.68076741695,2.91305375099,3.71865558624,-1.78665876389,-1.35708534718,5.5406293869,4.63708353043,2.03232192993
84,-10.9040708542,-16.1317901611,-17.3836994171,-20.3013801575,-16.4694881439,-12.5051412582,-15.6580247879,-3.56328988075,-5.98284387589,-16.4558238983,-11.1761398315,-17.5189990997,-22.8196220398,-4.05377006531,-7.76000022888,-17.6039543152,-14.1630945206,-8.4746799469,-15.7829713821,-9.40802001953,-12.115521431,-2.17549419403,-8.07647514343,-20.2887630463,-10.3327512741,-7.54010295868,-4.62374687195,-3.65144395828,-10.7626791,-15.0877609253,-9.60264873505,-3.6987760067,-11.9912061691,-7.21032619476,-11.5761766434,-16.2552604675
85,-1.42201399803,-3.19770789146,1.76422524452,-3.01508927345,-0.449570178986,1.93353796005,-0.336343884468,1.66198503971,-0.343423038721,-4.57930994034,-1.30262899399,-1.50873088837,-6.07764005661,0.0329194068909,0.938897967339,0.649912953377,-3.43469309807,-0.0826682820916,0.799782037735,0.248193979263,-0.741277217865,-0.143607079983,0.845433652401,1.39197778702,-4.85793638229,-2.38755607605,-1.92904138565,-2.04041600227,-1.21916687489,-3.76729130745,1.42465281487,-0.415796518326,0.850996375084,6.15540981293,0.571363925934,-3.27795982361
86,2.63668823242,0.628366827965,0.852772295475,1.14198851585,4.22674846649,3.5363380909,0.730227947235,0.247942000628,0.424231350422,2.45037436485,0.517839789391,-0.983157157898,1.79276430607,-0.927399992943,1.23173284531,0.843895196915,2.2357301712,1.6062489748,2.63833475113,-0.505460977554,1.69124484062,1.22099328041,1.80234396458,3.52206945419,2.69711184502,5.82635974884,5.73859500885,3.3120470047,0.612751066685,2.61035776138,4.33193492889,0.552565872669,1.08905363083,3.30656313896,0.244017958641,0.314226984978
87,-1.98297405243,-2.59620404243,-0.294012010098,-2.10584044456,-1.65731704235,-1.70599508286,1.75043511391,-0.169550001621,-0.95139336586,-1.06226718426,-2.3139295578,-0.823351323605,-3.20599079132,0.734007000923,-1.1539349556,-1.15360999107,-2.3290913105,0.627327561378,3.39754796028,3.13892865181,3.28957366943,-1.23759448528,-5.1183552742,-2.13211679459,1.33041143417,1.32713317871,0.820391952991,1.40803813934,0.435953021049,-1.50259006023,1.97212648392,0.00934395194054,-3.16574287415,0.70235991478,0.986945986748,0.415922999382
88,-0.0488679856062,-1.89433085918,0.963466048241,-0.0768759846687,-0.794425845146,-2.4648399353,-2.9220263958,0.143708974123,0.136699020863,-3.45938706398,-1.26545596123,-1.34927213192,-3.73801279068,-0.0937300026417,-1.27275002003,-3.67230081558,1.85756790638,-0.809761941433,2.42226195335,1.31671786308,0.27779597044,0.963020026684,-0.24993699789,-2.12150430679,0.571533083916,1.88694000244,-1.10385978222,-0.212957009673,-1.11001896858,3.52338528633,0.0377387404442,4.79185009003,2.01623535156,4.75998401642,0.95203602314,1.5621547699
89,0.086266040802,-2.67584180832,-3.52689409256,1.08661603928,-0.677526116371,-5.77796030045,-1.85543298721,0.435191392899,-1.99740314484,-2.61321020126,-2.1958398819,-6.06964969635,-8.48460006714,-0.648530006409,-3.32636117935,-3.26693797112,-2.42726612091,0.652286052704,0.888783991337,-1.52106070518,-1.53240585327,0.598856925964,2.17942786217,-2.74923205376,1.39335811138,2.82446527481,2.18815660477,2.59733557701,-0.580598056316,-2.25387501717,-1.10595798492,1.45329403877,-0.527992963791,2.10012292862,1.22815203667,-1.23240494728
90,1.59402608871,-0.524451076984,-1.07627284527,1.50749325752,-1.59616982937,0.39748698473,-0.458991855383,-2.95670986176,-2.03975105286,3.27586936951,0.315665990114,-2.90291380882,-1.33324801922,-0.146950006485,0.244817018509,0.316911071539,0.733764946461,-1.01106607914,-0.216883003712,0.879251003265,2.38291883469,0.0114079713821,0.801134824753,1.46518027782,2.71035194397,-1.68346381187,0.893243908882,0.799395024776,-1.47080588341,-1.66377198696,-2.266507864,0.675955891609,-0.759831786156,-0.00137207657099,-2.38485693932,-2.46900010109
91,1.01293504238,0.944071888924,-2.48722100258,3.9818520546,1.01049017906,-0.823662102222,0.611721038818,2.95920705795,0.306872963905,-1.62281906605,0.225972056389,-2.55091786385,1.15386295319,-1.38990998268,-0.177286982536,-0.461517989635,2.74611377716,1.44941294193,-0.881403565407,-3.28222203255,-1.14878320694,-0.0250599980354,-2.02871990204,-5.65374469757,-1.46363997459,-2.29587006569,-0.84461081028,-1.79909980297,-2.11659884453,-0.648749947548,-0.681626021862,-0.428492218256,-0.515607953072,1.24672591686,-2.80380010605,-2.80416846275
92,0.582859992981,1.77439904213,0.755940973759,-1.96724390984,-0.136220082641,-0.433132886887,2.18638014793,-0.920586645603,2.13010692596,-0.178771942854,-1.76210796833,1.82651305199,1.34360694885,1.55064702034,0.675277888775,6.60473966599,-2.04701519012,-3.54851317406,0.0292435884476,0.571383953094,-2.23684287071,-0.266022980213,-3.29607725143,1.63267707825,-2.28491592407,-1.91641712189,-5.47224521637,-3.69772195816,0.916503965855,-5.5238070488,-3.23926901817,-2.98356699944,-3.04968309402,-5.85776519775,-1.19634008408,-0.623086810112
93,-1.6332000494,-3.18930482864,-2.41723823547,-2.33779072762,-3.28626060486,-3.70802426338,-6.87613773346,-0.858175039291,-2.25190186501,-3.84990501404,-3.33845973015,-3.61853075027,-6.68126630783,-0.334329992533,-0.314169019461,-2.96802997589,-1.70342588425,-1.21968460083,-2.19856572151,-0.898528814316,-2.99984550476,-0.601953923702,0.139981031418,-1.19756662846,-0.914802074432,3.03465867043,-0.397973239422,1.28865838051,-0.977843999863,-0.381129950285,-1.08904600143,-1.45405399799,1.26456999779,-2.39108562469,0.0127421021461,0.555901050568
94,-0.00927110016346,-1.93431282043,5.2167301178,-1.7345700264,-1.65619003773,-0.411084383726,-2.61793375015,0.00700594484806,0.0159800648689,-5.04104995728,-2.6840839386,-2.57049298286,-4.06394577026,0.379309952259,-0.581693947315,-1.42513144016,1.31453990936,-0.554139912128,-5.31999015808,-2.14641189575,-4.06790018082,0.783659994602,-3.37747049332,-5.31051301956,-1.57265210152,-1.00852406025,-0.192000091076,-1.16926002502,-3.93350028992,-5.41060400009,-3.33684229851,0.254673808813,-8.87169265747,-3.0653693676,-5.50321054459,-4.84760046005
95,-2.05272293091,0.402191132307,6.20098018646,1.71978628635,-3.55721306801,0.979536950588,-1.06194591522,-2.04340910912,1.95933902264,3.47180223465,-0.477683067322,0.873752951622,0.482153117657,0.394209980965,-1.77687168121,5.36715984344,-1.69300985336,-3.78041291237,-4.26424217224,-2.44641304016,-4.37239313126,-0.440119981766,-1.89709198475,-0.517126321793,-0.913162946701,-0.897989869118,-5.02948188782,-1.70413994789,-1.54248189926,-2.17720413208,-1.20851182938,2.40098810196,1.63802587986,4.6043381691,-2.73274207115,-1.64791607857
96,-0.982948958874,-1.33188915253,-3.29237318039,-4.06679344177,1.63153576851,-0.990888953209,1.25041306019,0.523442089558,-0.18270200491,0.416895955801,-0.528018116951,1.90306687355,2.00577783585,1.66900002956,-1.22189497948,-0.424190044403,-3.42527318001,-2.43192815781,1.24938929081,0.400407493114,-2.23415088654,-1.94970011711,-3.61935901642,1.26945590973,-0.861879646778,0.0568559914827,-3.36009001732,-0.16042521596,1.07240581512,-3.99546837807,3.19734954834,0.72509509325,-2.02917790413,-2.65967798233,1.20327877998,0.720954477787
97,-3.9908759594,-3.55790781975,-2.40377521515,-4.49354171753,-7.02110099792,-6.2026758194,-1.37893891335,-2.36935997009,-2.45305991173,-5.27923965454,-4.06815576553,-1.92586410046,-4.71632480621,-1.50275301933,-2.08086013794,-10.4491691589,-5.75340938568,-6.21873188019,-0.64584004879,-3.07973098755,-2.93775701523,-2.11449289322,-3.28855991364,-4.7187628746,-0.562438964844,-3.81688213348,-5.64368152618,-2.42843317986,-1.90234005451,-2.96133852005,-2.9055390358,-0.592933952808,-2.41674017906,-0.746407091618,-2.25688695908,-2.38431978226
98,2.65253996849,7.40512037277,5.61778354645,10.0377883911,9.48731708527,7.91592931747,6.93339395523,0.909312963486,1.61679792404,8.75882911682,7.62802362442,6.39599084854,9.37300014496,0.860760033131,2.32454490662,7.12566804886,17.3882198334,10.4969749451,17.3208522797,8.2500629425,12.5442810059,2.24262928963,6.09553956985,4.90305423737,6.56287765503,3.31531953812,4.56284666061,3.69761109352,6.17112255096,8.35424900055,6.36744403839,6.2294793129,7.182721138,5.49836063385,10.7088937759,8.04714584351
99,0.338805913925,-3.29170012474,0.729291498661,2.88701438904,1.58248305321,1.44679880142,2.27670001984,1.58934998512,-1.15014612675,-3.25873088837,-0.599650025368,1.29350793362,2.97535324097,-0.44098302722,-0.831682980061,2.91368222237,0.664237976074,-2.13568115234,-1.42484211922,-0.133100062609,-0.0166360735893,1.20248913765,1.29036903381,0.608234524727,-0.24504289031,-4.49779319763,2.79670906067,-3.12873029709,-1.46062731743,-1.85714006424,-0.425498962402,-3.92974114418,-0.286096990108,0.817939221859,-1.57103514671,-3.30811166763
